 1.00485794e+02 1.19986367e+02
 1.00115060e+02 1.43995874e+02
 1.02286403e+02 1.68169519e+02
 1.06569120e+02 1.92068090e+02
 1.14844330e+02 2.14619710e+02
 1.28093873e+02 2.34802139e+02
 1.44641183e+02 2.52449776e+02
 1.63847445e+02 2.67116883e+02
 1.87016330e+02 2.71869363e+02
 2.10147531e+02 2.68871650e+02
 2.30734757e+02 2.55763405e+02
 2.48963958e+02 2.39394980e+02
 2.64059870e+02 2.19976110e+02
 2.74053840e+02 1.97637186e+02
 2.79414041e+02 1.73418112e+02
 2.82467303e+02 1.49092065e+02
 2.83605836e+02 1.24961382e+02
 1.18316355e+02 1.00259627e+02
 1.30563164e+02 9.16350227e+01
 1.45754983e+02 9.02588619e+01
 1.61106039e+02 9.35427290e+01
 1.75476884e+02 9.99984244e+01
 2.07180143e+02 1.00511515e+02
 2.22788745e+02 9.47382856e+01
 2.38246842e+02 9.27598048e+01
 2.53290141e+02 9.50366977e+01
 2.64736723e+02 1.03428824e+02
 1.91214780e+02 1.19671320e+02
 1.90706715e+02 1.36000411e+02
 1.90179696e+02 1.52389785e+02
 1.89632367e+02 1.69081094e+02
 1.71957245e+02 1.77776740e+02
 1.80298472e+02 1.81605878e+02
 1.89106122e+02 1.85178153e+02
 1.98463212e+02 1.82176684e+02
 2.06863207e+02 1.79126015e+02
 1.36067992e+02 1.19405899e+02
 1.45414777e+02 1.13690187e+02
 1.57359452e+02 1.14360487e+02
 1.66385272e+02 1.22301363e+02
 1.56041365e+02 1.24899469e+02
 1.44622761e+02 1.24352077e+02
 2.16173675e+02 1.23723442e+02
 2.25527323e+02 1.16287070e+02
 2.37326510e+02 1.16397671e+02
 2.46292700e+02 1.22656297e+02
 2.38172193e+02 1.26959418e+02
 2.27020517e+02 1.26903944e+02
 1.53951704e+02 2.08712618e+02
 1.66727414e+02 2.03279634e+02
 1.79602082e+02 2.01137408e+02
 1.88203271e+02 2.03726704e+02
 1.98173651e+02 2.01786572e+02
 2.11403071e+02 2.04918168e+02
 2.23728647e+02 2.10570972e+02
 2.11603646e+02 2.22790271e+02
 1.98525969e+02 2.27731009e+02
 1.87860272e+02 2.28427013e+02
 1.78231616e+02 2.27173298e+02
 1.65800110e+02 2.21527482e+02
 1.59312389e+02 2.09683232e+02
 1.79266558e+02 2.09642562e+02
 1.88106226e+02 2.10779702e+02
 1.98144862e+02 2.10138060e+02
 2.18226192e+02 2.11297193e+02
 1.98167703e+02 2.15366614e+02
 1.87959209e+02 2.16164041e+02
 1.78958990e+02 2.14835042e+02
